Sim/dump.vcd
$date
	Tue Jan  1 10:03:56 2019
$end
$version
	Icarus Verilog
$end
$timescale
	1s
$end
$scope module screen_controller_tb $end
$var wire 1 ! done $end
$var wire 1 " clk_out $end
$var wire 1 # R2_data $end
$var wire 1 $ R1_data $end
$var wire 1 % OE_N $end
$var wire 1 & LAT $end
$var wire 1 ' G2_data $end
$var wire 1 ( G1_data $end
$var wire 1 ) E $end
$var wire 1 * D $end
$var wire 1 + C $end
$var wire 1 , B2_data $end
$var wire 1 - B1_data $end
$var wire 1 . B $end
$var wire 1 / A $end
$var reg 1 0 clk_in $end
$var reg 1 1 locked $end
$scope module uut $end
$var wire 1 0 clk_in $end
$var wire 1 ! done $end
$var wire 1 " clk_out $end
$var wire 1 # R2_data $end
$var wire 1 $ R1_data $end
$var wire 1 % OE_N $end
$var wire 1 & LAT $end
$var wire 1 ' G2_data $end
$var wire 1 ( G1_data $end
$var wire 1 ) E $end
$var wire 1 * D $end
$var wire 1 + C $end
$var wire 1 , B2_data $end
$var wire 1 - B1_data $end
$var wire 1 . B $end
$var wire 1 / A $end
$var reg 6 2 column [5:0] $end
$var reg 6 3 row [5:0] $end
$var reg 2 4 state [1:0] $end
$upscope $end
$upscope $end
$enddefinitions $end
#0
$dumpvars
b0 4
b0 3
b0 2
11
00
0/
0.
0-
0,
0+
0*
0)
0(
0'
0&
1%
1$
1#
0"
z!
$end
#5
0$
1(
0#
1'
1/
b1 2
b1 3
1"
10
#10
0"
00
#15
0(
1-
0'
1,
0/
1.
b10 2
b10 3
1"
10
#20
0"
00
#25
0-
0,
1/
b11 2
b11 3
1"
10
#30
0"
00
#35
0/
0.
1+
b100 2
b100 3
1"
10
#40
0"
00
#45
1/
b101 2
b101 3
1"
10
#50
0"
00
#55
0/
1.
b110 2
b110 3
1"
10
#60
0"
00
#65
1/
b111 2
b111 3
1"
10
#70
0"
00
#75
0/
0.
0+
1*
b1000 2
b1000 3
1"
10
#80
0"
00
#85
1/
b1001 2
b1001 3
1"
10
#90
0"
00
#95
0/
1.
b1010 2
b1010 3
1"
10
#100
0"
00
#105
1/
b1011 2
b1011 3
1"
10
#110
0"
00
#115
0/
0.
1+
b1100 2
b1100 3
1"
10
#120
0"
00
#125
1/
b1101 2
b1101 3
1"
10
#130
0"
00
#135
0/
1.
b1110 2
b1110 3
1"
10
#140
0"
00
#145
1/
b1111 2
b1111 3
1"
10
#150
0"
00
#155
0/
0.
0+
0*
b0 3
1"
10
#160
0"
00
#165
1/
b10000 2
b1 3
1"
10
#170
0"
00
#175
0/
1.
b10001 2
b10 3
1"
10
#180
0"
00
#185
1/
b10010 2
b11 3
1"
10
#190
0"
00
#195
0/
0.
1+
b10011 2
b100 3
1"
10
#200
0"
00
#205
1/
b10100 2
b101 3
1"
10
#210
0"
00
#215
0/
1.
b10101 2
b110 3
1"
10
#220
0"
00
#225
1/
b10110 2
b111 3
1"
10
#230
0"
00
#235
0/
0.
0+
1*
b10111 2
b1000 3
1"
10
#240
0"
00
#245
1/
b11000 2
b1001 3
1"
10
#250
0"
00
#255
0/
1.
b11001 2
b1010 3
1"
10
#260
0"
00
#265
1/
b11010 2
b1011 3
1"
10
#270
0"
00
#275
0/
0.
1+
b11011 2
b1100 3
1"
10
#280
0"
00
#285
1/
b11100 2
b1101 3
1"
10
#290
0"
00
#295
0/
1.
b11101 2
b1110 3
1"
10
#300
0"
00
#305
1/
b11110 2
b1111 3
1"
10
#310
0"
00
#315
0/
0.
0+
0*
b0 3
1"
10
#320
0"
00
#325
1/
b11111 2
b1 3
1"
10
#330
0"
00
#335
1&
0/
1.
b1 4
b0 2
b10 3
0"
10
#340
00
#345
0%
0&
1/
b10 4
b11 3
10
#350
00
#355
0/
0.
1+
b1 2
b100 3
10
#360
00
#365
1/
b10 2
b101 3
10
#370
00
#375
0/
1.
b11 2
b110 3
10
#380
00
#385
1/
b100 2
b111 3
10
#390
00
#395
0/
0.
0+
1*
b101 2
b1000 3
10
#400
00
#405
1/
b110 2
b1001 3
10
#410
00
#415
0/
1.
b111 2
b1010 3
10
#420
00
#425
1/
b1000 2
b1011 3
10
#430
00
#435
0/
0.
1+
b1001 2
b1100 3
10
#440
00
#445
1/
b1010 2
b1101 3
10
#450
00
#455
0/
1.
b1011 2
b1110 3
10
#460
00
#465
1/
b1100 2
b1111 3
10
#470
00
#475
0/
0.
0+
0*
b0 3
10
#480
00
#485
1/
b1101 2
b1 3
10
#490
00
#495
0/
1.
b1110 2
b10 3
10
#500
00
#505
1/
b1111 2
b11 3
10
#510
00
#515
0/
0.
1+
b10000 2
b100 3
10
#520
00
#525
1/
b10001 2
b101 3
10
#530
00
#535
0/
1.
b10010 2
b110 3
10
#540
00
#545
1/
b10011 2
b111 3
10
#550
00
#555
0/
0.
0+
1*
b10100 2
b1000 3
10
#560
00
#565
1/
b10101 2
b1001 3
10
#570
00
#575
0/
1.
b10110 2
b1010 3
10
#580
00
#585
1/
b10111 2
b1011 3
10
#590
00
#595
0/
0.
1+
b11000 2
b1100 3
10
#600
00
#605
1/
b11001 2
b1101 3
10
#610
00
#615
0/
1.
b11010 2
b1110 3
10
#620
00
#625
1/
b11011 2
b1111 3
10
#630
00
#635
0/
0.
0+
0*
b0 3
10
#640
00
#645
1/
b11100 2
b1 3
10
#650
00
#655
0/
1.
b11101 2
b10 3
10
#660
00
#665
1/
b11110 2
b11 3
10
#670
00
#675
0/
0.
1+
b11111 2
b100 3
10
#680
00
#685
1/
b100000 2
b101 3
10
#690
00
#695
0/
1.
b100001 2
b110 3
10
#700
00
#705
1"
1%
1/
b0 4
b0 2
b111 3
10
#710
0"
00
#715
0/
0.
0+
1*
b1 2
b1000 3
1"
10
#720
0"
00
#725
1/
b10 2
b1001 3
1"
10
#730
0"
00
#735
0/
1.
b11 2
b1010 3
1"
10
#740
0"
00
#745
1/
b100 2
b1011 3
1"
10
#750
0"
00
#755
0/
0.
1+
b101 2
b1100 3
1"
10
#760
0"
00
#765
1/
b110 2
b1101 3
1"
10
#770
0"
00
#775
0/
1.
b111 2
b1110 3
1"
10
#780
0"
00
#785
1/
b1000 2
b1111 3
1"
10
#790
0"
00
#795
0/
0.
0+
0*
b0 3
1"
10
#800
0"
00
#805
1/
b1001 2
b1 3
1"
10
#810
0"
00
#815
0/
1.
b1010 2
b10 3
1"
10
#820
0"
00
#825
1/
b1011 2
b11 3
1"
10
#830
0"
00
#835
0/
0.
1+
b1100 2
b100 3
1"
10
#840
0"
00
#845
1/
b1101 2
b101 3
1"
10
#850
0"
00
#855
0/
1.
b1110 2
b110 3
1"
10
#860
0"
00
#865
1/
b1111 2
b111 3
1"
10
#870
0"
00
#875
0/
0.
0+
1*
b10000 2
b1000 3
1"
10
#880
0"
00
#885
1/
b10001 2
b1001 3
1"
10
#890
0"
00
#895
0/
1.
b10010 2
b1010 3
1"
10
#900
0"
00
#905
1/
b10011 2
b1011 3
1"
10
#910
0"
00
#915
0/
0.
1+
b10100 2
b1100 3
1"
10
#920
0"
00
#925
1/
b10101 2
b1101 3
1"
10
#930
0"
00
#935
0/
1.
b10110 2
b1110 3
1"
10
#940
0"
00
#945
1/
b10111 2
b1111 3
1"
10
#950
0"
00
#955
0/
0.
0+
0*
b0 3
1"
10
#960
0"
00
#965
1/
b11000 2
b1 3
1"
10
#970
0"
00
#975
0/
1.
b11001 2
b10 3
1"
10
#980
0"
00
#985
1/
b11010 2
b11 3
1"
10
#990
0"
00
#995
0/
0.
1+
b11011 2
b100 3
1"
10
#1000
0"
00
#1005
1/
b11100 2
b101 3
1"
10
#1010
0"
00
#1015
0/
1.
b11101 2
b110 3
1"
10
#1020
0"
00
#1025
1/
b11110 2
b111 3
1"
10
#1030
0"
00
#1035
0/
0.
0+
1*
b11111 2
b1000 3
1"
10
#1040
0"
00
#1045
1&
1/
b1 4
b0 2
b1001 3
0"
10
#1050
00
#1055
0%
0&
0/
1.
b10 4
b1010 3
10
#1060
00
#1065
1/
b1 2
b1011 3
10
#1070
00
#1075
0/
0.
1+
b10 2
b1100 3
10
#1080
00
#1085
1/
b11 2
b1101 3
10
#1090
00
#1095
0/
1.
b100 2
b1110 3
10
#1100
00
#1105
1/
b101 2
b1111 3
10
#1110
00
#1115
0/
0.
0+
0*
b0 3
10
#1120
00
#1125
1/
b110 2
b1 3
10
#1130
00
#1135
0/
1.
b111 2
b10 3
10
#1140
00
#1145
1/
b1000 2
b11 3
10
#1150
00
#1155
0/
0.
1+
b1001 2
b100 3
10
#1160
00
#1165
1/
b1010 2
b101 3
10
#1170
00
#1175
0/
1.
b1011 2
b110 3
10
#1180
00
#1185
1/
b1100 2
b111 3
10
#1190
00
#1195
0/
0.
0+
1*
b1101 2
b1000 3
10
#1200
00
#1205
1/
b1110 2
b1001 3
10
#1210
00
#1215
0/
1.
b1111 2
b1010 3
10
#1220
00
#1225
1/
b10000 2
b1011 3
10
#1230
00
#1235
0/
0.
1+
b10001 2
b1100 3
10
#1240
00
#1245
1/
b10010 2
b1101 3
10
#1250
00
#1255
0/
1.
b10011 2
b1110 3
10
#1260
00
#1265
1/
b10100 2
b1111 3
10
#1270
00
#1275
0/
0.
0+
0*
b0 3
10
#1280
00
#1285
1/
b10101 2
b1 3
10
#1290
00
#1295
0/
1.
b10110 2
b10 3
10
#1300
00
#1305
1/
b10111 2
b11 3
10
#1310
00
#1315
0/
0.
1+
b11000 2
b100 3
10
#1320
00
#1325
1/
b11001 2
b101 3
10
#1330
00
#1335
0/
1.
b11010 2
b110 3
10
#1340
00
#1345
1/
b11011 2
b111 3
10
#1350
00
#1355
0/
0.
0+
1*
b11100 2
b1000 3
10
#1360
00
#1365
1/
b11101 2
b1001 3
10
#1370
00
#1375
0/
1.
b11110 2
b1010 3
10
#1380
00
#1385
1/
b11111 2
b1011 3
10
#1390
00
#1395
0/
0.
1+
b100000 2
b1100 3
10
#1400
00
#1405
1/
b100001 2
b1101 3
10
#1410
00
#1415
1"
1%
0/
1.
b0 4
b0 2
b1110 3
10
#1420
0"
00
#1425
1/
b1 2
b1111 3
1"
10
#1430
0"
00
#1435
0/
0.
0+
0*
b0 3
1"
10
#1440
0"
00
#1445
1/
b10 2
b1 3
1"
10
#1450
0"
00
#1455
0/
1.
b11 2
b10 3
1"
10
#1460
0"
00
#1465
1/
b100 2
b11 3
1"
10
#1470
0"
00
#1475
0/
0.
1+
b101 2
b100 3
1"
10
#1480
0"
00
#1485
1/
b110 2
b101 3
1"
10
#1490
0"
00
#1495
0/
1.
b111 2
b110 3
1"
10
#1500
0"
00
#1505
1/
b1000 2
b111 3
1"
10
#1510
0"
00
#1515
0/
0.
0+
1*
b1001 2
b1000 3
1"
10
#1520
0"
00
#1525
1/
b1010 2
b1001 3
1"
10
#1530
0"
00
#1535
0/
1.
b1011 2
b1010 3
1"
10
#1540
0"
00
#1545
1/
b1100 2
b1011 3
1"
10
#1550
0"
00
#1555
0/
0.
1+
b1101 2
b1100 3
1"
10
#1560
0"
00
#1565
1/
b1110 2
b1101 3
1"
10
#1570
0"
00
#1575
0/
1.
b1111 2
b1110 3
1"
10
#1580
0"
00
#1585
1/
b10000 2
b1111 3
1"
10
#1590
0"
00
#1595
0/
0.
0+
0*
b0 3
1"
10
#1600
0"
00
#1605
1/
b10001 2
b1 3
1"
10
#1610
0"
00
#1615
0/
1.
b10010 2
b10 3
1"
10
#1620
0"
00
#1625
1/
b10011 2
b11 3
1"
10
#1630
0"
00
#1635
0/
0.
1+
b10100 2
b100 3
1"
10
#1640
0"
00
#1645
1/
b10101 2
b101 3
1"
10
#1650
0"
00
#1655
0/
1.
b10110 2
b110 3
1"
10
#1660
0"
00
#1665
1/
b10111 2
b111 3
1"
10
#1670
0"
00
#1675
0/
0.
0+
1*
b11000 2
b1000 3
1"
10
#1680
0"
00
#1685
1/
b11001 2
b1001 3
1"
10
#1690
0"
00
#1695
0/
1.
b11010 2
b1010 3
1"
10
#1700
0"
00
#1705
1/
b11011 2
b1011 3
1"
10
#1710
0"
00
#1715
0/
0.
1+
b11100 2
b1100 3
1"
10
#1720
0"
00
#1725
1/
b11101 2
b1101 3
1"
10
#1730
0"
00
#1735
0/
1.
b11110 2
b1110 3
1"
10
#1740
0"
00
#1745
1/
b11111 2
b1111 3
1"
10
#1750
0"
00
#1755
0/
0.
0+
0*
b0 3
1"
10
#1760
0"
00
#1765
1&
1/
b1 4
b0 2
b1 3
0"
10
#1770
00
#1775
0%
0&
0/
1.
b10 4
b10 3
10
#1780
00
#1785
1/
b1 2
b11 3
10
#1790
00
#1795
0/
0.
1+
b10 2
b100 3
10
#1800
00
#1805
1/
b11 2
b101 3
10
#1810
00
#1815
0/
1.
b100 2
b110 3
10
#1820
00
#1825
1/
b101 2
b111 3
10
#1830
00
#1835
0/
0.
0+
1*
b110 2
b1000 3
10
#1840
00
#1845
1/
b111 2
b1001 3
10
#1850
00
#1855
0/
1.
b1000 2
b1010 3
10
#1860
00
#1865
1/
b1001 2
b1011 3
10
#1870
00
#1875
0/
0.
1+
b1010 2
b1100 3
10
#1880
00
#1885
1/
b1011 2
b1101 3
10
#1890
00
#1895
0/
1.
b1100 2
b1110 3
10
#1900
00
#1905
1/
b1101 2
b1111 3
10
#1910
00
#1915
0/
0.
0+
0*
b0 3
10
#1920
00
#1925
1/
b1110 2
b1 3
10
#1930
00
#1935
0/
1.
b1111 2
b10 3
10
#1940
00
#1945
1/
b10000 2
b11 3
10
#1950
00
#1955
0/
0.
1+
b10001 2
b100 3
10
#1960
00
#1965
1/
b10010 2
b101 3
10
#1970
00
#1975
0/
1.
b10011 2
b110 3
10
#1980
00
#1985
1/
b10100 2
b111 3
10
#1990
00
#1995
0/
0.
0+
1*
b10101 2
b1000 3
10
#2000
00
#2005
1/
b10110 2
b1001 3
10
#2010
00
#2015
0/
1.
b10111 2
b1010 3
10
#2020
00
#2025
1/
b11000 2
b1011 3
10
#2030
00
#2035
0/
0.
1+
b11001 2
b1100 3
10
#2040
00
#2045
1/
b11010 2
b1101 3
10
#2050
00
#2055
0/
1.
b11011 2
b1110 3
10
#2060
00
#2065
1/
b11100 2
b1111 3
10
#2070
00
#2075
0/
0.
0+
0*
b0 3
10
#2080
00
#2085
1/
b11101 2
b1 3
10
#2090
00
#2095
0/
1.
b11110 2
b10 3
10
#2100
00
#2105
1/
b11111 2
b11 3
10
#2110
00
#2115
0/
0.
1+
b100000 2
b100 3
10
#2120
00
#2125
1/
b100001 2
b101 3
10
#2130
00
#2135
1"
1%
0/
1.
b0 4
b0 2
b110 3
10
#2140
0"
00
#2145
1/
b1 2
b111 3
1"
10
#2150
0"
00
#2155
0/
0.
0+
1*
b10 2
b1000 3
1"
10
#2160
0"
00
#2165
1/
b11 2
b1001 3
1"
10
#2170
0"
00
#2175
0/
1.
b100 2
b1010 3
1"
10
#2180
0"
00
#2185
1/
b101 2
b1011 3
1"
10
#2190
0"
00
#2195
0/
0.
1+
b110 2
b1100 3
1"
10
#2200
0"
00
#2205
1/
b111 2
b1101 3
1"
10
#2210
0"
00
#2215
0/
1.
b1000 2
b1110 3
1"
10
#2220
0"
00
#2225
1/
b1001 2
b1111 3
1"
10
#2230
0"
00
#2235
0/
0.
0+
0*
b0 3
1"
10
#2240
0"
00
#2245
1/
b1010 2
b1 3
1"
10
#2250
0"
00
#2255
0/
1.
b1011 2
b10 3
1"
10
#2260
0"
00
#2265
1/
b1100 2
b11 3
1"
10
#2270
0"
00
#2275
0/
0.
1+
b1101 2
b100 3
1"
10
#2280
0"
00
#2285
1/
b1110 2
b101 3
1"
10
#2290
0"
00
#2295
0/
1.
b1111 2
b110 3
1"
10
#2300
0"
00
#2305
1/
b10000 2
b111 3
1"
10
#2310
0"
00
#2315
0/
0.
0+
1*
b10001 2
b1000 3
1"
10
#2320
0"
00
#2325
1/
b10010 2
b1001 3
1"
10
#2330
0"
00
#2335
0/
1.
b10011 2
b1010 3
1"
10
#2340
0"
00
#2345
1/
b10100 2
b1011 3
1"
10
#2350
0"
00
#2355
0/
0.
1+
b10101 2
b1100 3
1"
10
#2360
0"
00
#2365
1/
b10110 2
b1101 3
1"
10
#2370
0"
00
#2375
0/
1.
b10111 2
b1110 3
1"
10
#2380
0"
00
#2385
1/
b11000 2
b1111 3
1"
10
#2390
0"
00
#2395
0/
0.
0+
0*
b0 3
1"
10
#2400
0"
00
#2405
1/
b11001 2
b1 3
1"
10
#2410
0"
00
#2415
0/
1.
b11010 2
b10 3
1"
10
#2420
0"
00
#2425
1/
b11011 2
b11 3
1"
10
#2430
0"
00
#2435
0/
0.
1+
b11100 2
b100 3
1"
10
#2440
0"
00
#2445
1/
b11101 2
b101 3
1"
10
#2450
0"
00
#2455
0/
1.
b11110 2
b110 3
1"
10
#2460
0"
00
#2465
1/
b11111 2
b111 3
1"
10
#2470
0"
00
#2475
1&
0/
0.
0+
1*
b1 4
b0 2
b1000 3
0"
10
#2480
00
#2485
0%
0&
1/
b10 4
b1001 3
10
#2490
00
#2495
0/
1.
b1 2
b1010 3
10
#2500
00
#2505
1/
b10 2
b1011 3
10
#2510
00
#2515
0/
0.
1+
b11 2
b1100 3
10
#2520
00
#2525
1/
b100 2
b1101 3
10
#2530
00
#2535
0/
1.
b101 2
b1110 3
10
#2540
00
#2545
1/
b110 2
b1111 3
10
#2550
00
#2555
0/
0.
0+
0*
b0 3
10
#2560
00
#2565
1/
b111 2
b1 3
10
#2570
00
#2575
0/
1.
b1000 2
b10 3
10
#2580
00
#2585
1/
b1001 2
b11 3
10
#2590
00
#2595
0/
0.
1+
b1010 2
b100 3
10
#2600
00
#2605
1/
b1011 2
b101 3
10
#2610
00
#2615
0/
1.
b1100 2
b110 3
10
#2620
00
#2625
1/
b1101 2
b111 3
10
#2630
00
#2635
0/
0.
0+
1*
b1110 2
b1000 3
10
#2640
00
#2645
1/
b1111 2
b1001 3
10
#2650
00
#2655
0/
1.
b10000 2
b1010 3
10
#2660
00
#2665
1/
b10001 2
b1011 3
10
#2670
00
#2675
0/
0.
1+
b10010 2
b1100 3
10
#2680
00
#2685
1/
b10011 2
b1101 3
10
#2690
00
#2695
0/
1.
b10100 2
b1110 3
10
#2700
00
#2705
1/
b10101 2
b1111 3
10
#2710
00
#2715
0/
0.
0+
0*
b0 3
10
#2720
00
#2725
1/
b10110 2
b1 3
10
#2730
00
#2735
0/
1.
b10111 2
b10 3
10
#2740
00
#2745
1/
b11000 2
b11 3
10
#2750
00
#2755
0/
0.
1+
b11001 2
b100 3
10
#2760
00
#2765
1/
b11010 2
b101 3
10
#2770
00
#2775
0/
1.
b11011 2
b110 3
10
#2780
00
#2785
1/
b11100 2
b111 3
10
#2790
00
#2795
0/
0.
0+
1*
b11101 2
b1000 3
10
#2800
00
#2805
1/
b11110 2
b1001 3
10
#2810
00
#2815
0/
1.
b11111 2
b1010 3
10
#2820
00
#2825
1/
b100000 2
b1011 3
10
#2830
00
#2835
0/
0.
1+
b100001 2
b1100 3
10
#2840
00
#2845
1"
1%
1/
b0 4
b0 2
b1101 3
10
#2850
0"
00
#2855
0/
1.
b1 2
b1110 3
1"
10
#2860
0"
00
#2865
1/
b10 2
b1111 3
1"
10
#2870
0"
00
#2875
0/
0.
0+
0*
b0 3
1"
10
#2880
0"
00
#2885
1/
b11 2
b1 3
1"
10
#2890
0"
00
#2895
0/
1.
b100 2
b10 3
1"
10
#2900
0"
00
#2905
1/
b101 2
b11 3
1"
10
#2910
0"
00
#2915
0/
0.
1+
b110 2
b100 3
1"
10
#2920
0"
00
#2925
1/
b111 2
b101 3
1"
10
#2930
0"
00
#2935
0/
1.
b1000 2
b110 3
1"
10
#2940
0"
00
#2945
1/
b1001 2
b111 3
1"
10
#2950
0"
00
#2955
0/
0.
0+
1*
b1010 2
b1000 3
1"
10
#2960
0"
00
#2965
1/
b1011 2
b1001 3
1"
10
#2970
0"
00
#2975
0/
1.
b1100 2
b1010 3
1"
10
#2980
0"
00
#2985
1/
b1101 2
b1011 3
1"
10
#2990
0"
00
#2995
0/
0.
1+
b1110 2
b1100 3
1"
10
#3000
0"
00
#3005
1/
b1111 2
b1101 3
1"
10
#3010
0"
00
#3015
0/
1.
b10000 2
b1110 3
1"
10
#3020
0"
00
#3025
1/
b10001 2
b1111 3
1"
10
#3030
0"
00
#3035
0/
0.
0+
0*
b0 3
1"
10
#3040
0"
00
#3045
1/
b10010 2
b1 3
1"
10
#3050
0"
00
#3055
0/
1.
b10011 2
b10 3
1"
10
#3060
0"
00
#3065
1/
b10100 2
b11 3
1"
10
#3070
0"
00
#3075
0/
0.
1+
b10101 2
b100 3
1"
10
#3080
0"
00
#3085
1/
b10110 2
b101 3
1"
10
#3090
0"
00
#3095
0/
1.
b10111 2
b110 3
1"
10
#3100
0"
00
#3105
1/
b11000 2
b111 3
1"
10
#3110
0"
00
#3115
0/
0.
0+
1*
b11001 2
b1000 3
1"
10
#3120
0"
00
#3125
1/
b11010 2
b1001 3
1"
10
#3130
0"
00
#3135
0/
1.
b11011 2
b1010 3
1"
10
#3140
0"
00
#3145
1/
b11100 2
b1011 3
1"
10
#3150
0"
00
#3155
0/
0.
1+
b11101 2
b1100 3
1"
10
#3160
0"
00
#3165
1/
b11110 2
b1101 3
1"
10
#3170
0"
00
#3175
0/
1.
b11111 2
b1110 3
1"
10
#3180
0"
00
#3185
1&
1/
b1 4
b0 2
b1111 3
0"
10
#3190
00
#3195
1$
1#
0/
0.
0+
0*
b0 3
10
#3200
00
#3205
0$
0#
0%
0&
1/
b10 4
b1 3
10
#3210
00
#3215
0/
1.
b1 2
b10 3
10
#3220
00
#3225
1/
b10 2
b11 3
10
#3230
00
#3235
0/
0.
1+
b11 2
b100 3
10
#3240
00
#3245
1/
b100 2
b101 3
10
#3250
00
#3255
0/
1.
b101 2
b110 3
10
#3260
00
#3265
1/
b110 2
b111 3
10
#3270
00
#3275
0/
0.
0+
1*
b111 2
b1000 3
10
#3280
00
#3285
1/
b1000 2
b1001 3
10
#3290
00
#3295
0/
1.
b1001 2
b1010 3
10
#3300
00
#3305
1/
b1010 2
b1011 3
10
#3310
00
#3315
0/
0.
1+
b1011 2
b1100 3
10
#3320
00
#3325
1/
b1100 2
b1101 3
10
#3330
00
#3335
0/
1.
b1101 2
b1110 3
10
#3340
00
#3345
1/
b1110 2
b1111 3
10
#3350
00
#3355
0/
0.
0+
0*
b0 3
10
#3360
00
#3365
1/
b1111 2
b1 3
10
#3370
00
#3375
0/
1.
b10000 2
b10 3
10
#3380
00
#3385
1/
b10001 2
b11 3
10
#3390
00
#3395
0/
0.
1+
b10010 2
b100 3
10
#3400
00
#3405
1/
b10011 2
b101 3
10
#3410
00
#3415
0/
1.
b10100 2
b110 3
10
#3420
00
#3425
1/
b10101 2
b111 3
10
#3430
00
#3435
0/
0.
0+
1*
b10110 2
b1000 3
10
#3440
00
#3445
1/
b10111 2
b1001 3
10
#3450
00
#3455
0/
1.
b11000 2
b1010 3
10
#3460
00
#3465
1/
b11001 2
b1011 3
10
#3470
00
#3475
0/
0.
1+
b11010 2
b1100 3
10
#3480
00
#3485
1/
b11011 2
b1101 3
10
#3490
00
#3495
0/
1.
b11100 2
b1110 3
10
#3500
00
#3505
1/
b11101 2
b1111 3
10
#3510
00
#3515
0/
0.
0+
0*
b0 3
10
#3520
00
#3525
1/
b11110 2
b1 3
10
#3530
00
#3535
0/
1.
b11111 2
b10 3
10
#3540
00
#3545
1/
b100000 2
b11 3
10
#3550
00
#3555
0/
0.
1+
b100001 2
b100 3
10
#3560
00
#3565
1"
1%
1/
b0 4
b0 2
b101 3
10
#3570
0"
00
#3575
0/
1.
b1 2
b110 3
1"
10
#3580
0"
00
#3585
1/
b10 2
b111 3
1"
10
#3590
0"
00
#3595
0/
0.
0+
1*
b11 2
b1000 3
1"
10
#3600
0"
00
#3605
1/
b100 2
b1001 3
1"
10
#3610
0"
00
#3615
0/
1.
b101 2
b1010 3
1"
10
#3620
0"
00
#3625
1/
b110 2
b1011 3
1"
10
#3630
0"
00
#3635
0/
0.
1+
b111 2
b1100 3
1"
10
#3640
0"
00
#3645
1/
b1000 2
b1101 3
1"
10
#3650
0"
00
#3655
0/
1.
b1001 2
b1110 3
1"
10
#3660
0"
00
#3665
1/
b1010 2
b1111 3
1"
10
#3670
0"
00
#3675
0/
0.
0+
0*
b0 3
1"
10
#3680
0"
00
#3685
1/
b1011 2
b1 3
1"
10
#3690
0"
00
#3695
0/
1.
b1100 2
b10 3
1"
10
#3700
0"
00
#3705
1/
b1101 2
b11 3
1"
10
#3710
0"
00
#3715
0/
0.
1+
b1110 2
b100 3
1"
10
#3720
0"
00
#3725
1/
b1111 2
b101 3
1"
10
#3730
0"
00
#3735
0/
1.
b10000 2
b110 3
1"
10
#3740
0"
00
#3745
1/
b10001 2
b111 3
1"
10
#3750
0"
00
#3755
0/
0.
0+
1*
b10010 2
b1000 3
1"
10
#3760
0"
00
#3765
1/
b10011 2
b1001 3
1"
10
#3770
0"
00
#3775
0/
1.
b10100 2
b1010 3
1"
10
#3780
0"
00
#3785
1/
b10101 2
b1011 3
1"
10
#3790
0"
00
#3795
0/
0.
1+
b10110 2
b1100 3
1"
10
#3800
0"
00
#3805
1/
b10111 2
b1101 3
1"
10
#3810
0"
00
#3815
0/
1.
b11000 2
b1110 3
1"
10
#3820
0"
00
#3825
1/
b11001 2
b1111 3
1"
10
#3830
0"
00
#3835
0/
0.
0+
0*
b0 3
1"
10
#3840
0"
00
#3845
1/
b11010 2
b1 3
1"
10
#3850
0"
00
#3855
0/
1.
b11011 2
b10 3
1"
10
#3860
0"
00
#3865
1/
b11100 2
b11 3
1"
10
#3870
0"
00
#3875
0/
0.
1+
b11101 2
b100 3
1"
10
#3880
0"
00
#3885
1/
b11110 2
b101 3
1"
10
#3890
0"
00
#3895
0/
1.
b11111 2
b110 3
1"
10
#3900
0"
00
#3905
1&
1/
b1 4
b0 2
b111 3
0"
10
#3910
00
#3915
0%
0&
0/
0.
0+
1*
b10 4
b1000 3
10
#3920
00
#3925
1/
b1 2
b1001 3
10
#3930
00
#3935
0/
1.
b10 2
b1010 3
10
#3940
00
#3945
1/
b11 2
b1011 3
10
#3950
00
#3955
0/
0.
1+
b100 2
b1100 3
10
#3960
00
#3965
1/
b101 2
b1101 3
10
#3970
00
#3975
0/
1.
b110 2
b1110 3
10
#3980
00
#3985
1/
b111 2
b1111 3
10
#3990
00
#3995
0/
0.
0+
0*
b0 3
10
#4000
00
#4005
1/
b1000 2
b1 3
10
#4010
00
#4015
0/
1.
b1001 2
b10 3
10
#4020
00
#4025
1/
b1010 2
b11 3
10
#4030
00
#4035
0/
0.
1+
b1011 2
b100 3
10
#4040
00
#4045
1/
b1100 2
b101 3
10
#4050
00
#4055
0/
1.
b1101 2
b110 3
10
#4060
00
#4065
1/
b1110 2
b111 3
10
#4070
00
#4075
0/
0.
0+
1*
b1111 2
b1000 3
10
#4080
00
#4085
1/
b10000 2
b1001 3
10
#4090
00
#4095
0/
1.
b10001 2
b1010 3
10
#4100
00
#4105
1/
b10010 2
b1011 3
10
#4110
00
#4115
0/
0.
1+
b10011 2
b1100 3
10
#4120
00
#4125
1/
b10100 2
b1101 3
10
#4130
00
#4135
0/
1.
b10101 2
b1110 3
10
#4140
00
#4145
1/
b10110 2
b1111 3
10
#4150
00
#4155
0/
0.
0+
0*
b0 3
10
#4160
00
#4165
1/
b10111 2
b1 3
10
#4170
00
#4175
0/
1.
b11000 2
b10 3
10
#4180
00
#4185
1/
b11001 2
b11 3
10
#4190
00
#4195
0/
0.
1+
b11010 2
b100 3
10
#4200
00
#4205
1/
b11011 2
b101 3
10
#4210
00
#4215
0/
1.
b11100 2
b110 3
10
#4220
00
#4225
1/
b11101 2
b111 3
10
#4230
00
#4235
0/
0.
0+
1*
b11110 2
b1000 3
10
#4240
00
#4245
1/
b11111 2
b1001 3
10
#4250
00
#4255
0/
1.
b100000 2
b1010 3
10
#4260
00
#4265
1/
b100001 2
b1011 3
10
#4270
00
#4275
1"
1%
0/
0.
1+
b0 4
b0 2
b1100 3
10
#4280
0"
00
#4285
1/
b1 2
b1101 3
1"
10
#4290
0"
00
#4295
0/
1.
b10 2
b1110 3
1"
10
#4300
0"
00
#4305
1/
b11 2
b1111 3
1"
10
#4310
0"
00
#4315
0/
0.
0+
0*
b0 3
1"
10
#4320
0"
00
#4325
1/
b100 2
b1 3
1"
10
#4330
0"
00
#4335
0/
1.
b101 2
b10 3
1"
10
#4340
0"
00
#4345
1/
b110 2
b11 3
1"
10
#4350
0"
00
#4355
0/
0.
1+
b111 2
b100 3
1"
10
#4360
0"
00
#4365
1/
b1000 2
b101 3
1"
10
#4370
0"
00
#4375
0/
1.
b1001 2
b110 3
1"
10
#4380
0"
00
#4385
1/
b1010 2
b111 3
1"
10
#4390
0"
00
#4395
0/
0.
0+
1*
b1011 2
b1000 3
1"
10
#4400
0"
00
#4405
1/
b1100 2
b1001 3
1"
10
#4410
0"
00
#4415
0/
1.
b1101 2
b1010 3
1"
10
#4420
0"
00
#4425
1/
b1110 2
b1011 3
1"
10
#4430
0"
00
#4435
0/
0.
1+
b1111 2
b1100 3
1"
10
#4440
0"
00
#4445
1/
b10000 2
b1101 3
1"
10
#4450
0"
00
#4455
0/
1.
b10001 2
b1110 3
1"
10
#4460
0"
00
#4465
1/
b10010 2
b1111 3
1"
10
#4470
0"
00
#4475
0/
0.
0+
0*
b0 3
1"
10
#4480
0"
00
#4485
1/
b10011 2
b1 3
1"
10
#4490
0"
00
#4495
0/
1.
b10100 2
b10 3
1"
10
#4500
0"
00
#4505
1/
b10101 2
b11 3
1"
10
#4510
0"
00
#4515
0/
0.
1+
b10110 2
b100 3
1"
10
#4520
0"
00
#4525
1/
b10111 2
b101 3
1"
10
#4530
0"
00
